<?xml version="1.0" encoding="UTF-8"?>
<svg id="Capa_1" data-name="Capa 1" xmlns="http://www.w3.org/2000/svg" version="1.1" xmlns:xlink="http://www.w3.org/1999/xlink" viewBox="0 0 247.1 247.1">
  <defs>
    <style>
      .cls-1 {
        fill: #fbffff;
      }

      .cls-1, .cls-2, .cls-3, .cls-4, .cls-5, .cls-6, .cls-7, .cls-8 {
        stroke-width: 0px;
      }

      .cls-2 {
        fill: none;
      }

      .cls-3 {
        fill: #ffbb64;
      }

      .cls-4 {
        fill: #a3bad9;
      }

      .cls-5 {
        fill: #e5eef5;
      }

      .cls-9 {
        clip-path: url(#clippath);
      }

      .cls-6 {
        fill: #fff;
      }

      .cls-7 {
        fill: url(#Degradado_sin_nombre);
      }

      .cls-10 {
        display: none;
      }

      .cls-8 {
        fill: #4514c7;
      }
    </style>
    <clipPath id="clippath">
      <path class="cls-2" d="M44.2,0C19.9,0,0,19.9,0,44.2v158.7c0,24.3,19.9,44.2,44.2,44.2h158.7c24.3,0,44.2-19.9,44.2-44.2l-.9-155.5L202.3,0H44.2Z"/>
    </clipPath>
    <linearGradient id="Degradado_sin_nombre" data-name="Degradado sin nombre" x1="2756.4" y1="364.3" x2="2757.4" y2="364.3" gradientTransform="translate(-681198.7 -89898.7) scale(247.1)" gradientUnits="userSpaceOnUse">
      <stop offset="0" stop-color="#bf007f"/>
      <stop offset="1" stop-color="#90007f"/>
    </linearGradient>
  </defs>
  <g class="cls-10">
    <g>
      <g class="cls-9">
        <rect class="cls-7" width="247.1" height="247.1"/>
      </g>
      <polygon class="cls-3" points="202.3 0 202.3 47.4 246.2 47.4 202.3 0"/>
    </g>
    <path class="cls-6" d="M123.6,128c-18.4,4.7-33.6,23.8-32.7,41.7.2,4.6,2.1,9.2,3.3,13.7,1.5,5.4,3.9,10.6,4.4,16.1v.9h10.9c-.2-1.8-.7-3.6-1.3-5.5-3-8.3-7.1-16.6-8-25.1-2.1-20,10.5-30.4,27.3-34.8,15.7-4.1,31.7,5.2,36.7,20.9,1.5,4.6,3.4,8.7,5.6,12.4,1.9-4.7,3.2-9.7,3.6-14.9-.7-1.4-1.4-2.8-2.1-4.1-8.6-17-29.1-26.1-47.7-21.3"/>
    <path class="cls-6" d="M128.2,154.8c-7.4,2.8-11,11.4-7.2,20.3,3.7,8.8,8.2,16.7,13.5,23.7,3.3-.8,6.5-2,9.6-3.4-6-7.2-10.5-15.2-13.1-24.4-.5-1.7.9-3.8,1.4-5.8,1.5,1.3,3.8,2.3,4.4,4,3.3,8.6,7.8,16.3,13.1,22.9,3.1-2,5.9-4.2,8.5-6.8-4.8-5.8-8.9-12.7-12.1-20.7-3.8-9.8-10.2-12.8-18.1-9.8"/>
    <path class="cls-6" d="M126.1,142c-17.3,6.4-23.8,20.4-17.4,36.8,2.8,7.1,6.7,13.9,7.7,21.6h5.7c1.7,0,3.4-.1,5.1-.3-5.6-7.5-10-15.8-12.9-25-3.1-10,.6-20,8.7-24.9,10.5-6.4,22.9-2.1,28.5,9.3,3.5,7.1,7.1,14.2,11.6,20.6,1.3-1.8,2.6-3.6,3.7-5.5-3.1-4.6-5.7-9.7-7.6-14.8-5.7-15.1-19.5-22.9-33.1-17.8"/>
    <path class="cls-6" d="M104.7,111.5c22.6-12.2,49.7-8.3,69.1,6.3v-26.4c0-10.5-3.1-20.2-8.4-28.3l-10.9,10-19.3-21,8.5-7.8c-6.6-3-13.9-4.7-21.6-4.7h-44.8v96.7c5.8-9.4,14.6-17.9,27.4-24.8M110.5,92.9l2.3-2.1,10-23.8,8.8-11.7,9.6,10.5,9.6,10.5-12.4,7.8-24.6,8-2.3,2.1c-.4.3-.9.3-1.3,0-.1-.3-.1-.8.3-1.2"/>
    <path class="cls-6" d="M118.9,112.9c-20.9,5.6-36,21.2-41.6,40.5v33.5c.3,1,.5,2,.8,2.9.9,3.5,2,7,2.7,10.6h11.4c0-1.4-.2-2.9-.6-4.4-.9-3.4-2.1-6.7-3.4-10-9.2-24.5.8-49.4,24.5-60.7,22.2-10.6,47.5-3.8,61,15.6v-14.5c-14.3-13.1-34.8-18.9-54.8-13.5"/>
  </g>
  <path class="cls-8" d="M218.9,27.6c21.4,20.6,26.9,58.2,27.3,95.9-.4,37.7-5.9,75.3-27.3,95.9-20.6,21.4-58.2,26.9-95.9,27.3-37.6-.4-75.3-5.9-95.9-27.3C5.9,198.9.4,161.1,0,123.5.4,85.8,5.9,48.2,27.3,27.6,47.9,6.2,85.4.7,123.2.3c37.6.4,75.3,5.9,95.8,27.3Z"/>
  <path class="cls-4" d="M184,59.3l18.2,10.9-68.9,114.9c-5.6,9.4-17.8,12.5-27.2,6.8,0,0,0,0,0,0l-1.1-.7c-9.4-5.6-12.5-17.8-6.8-27.2,0,0,0,0,0,0l58.7-98c5.6-9.3,17.7-12.3,27-6.7,0,0,0,0,0,0Z"/>
  <path class="cls-5" d="M156,68.7l-1.1-.7c-9.4-5.7-21.6-2.6-27.2,6.8,0,0,0,0,0,0l-47.1,78.6c-5.7,9.4-2.6,21.6,6.8,27.2,0,0,0,0,0,0l18.2,10.9,57.3-95.6c5.7-9.4,2.6-21.6-6.8-27.2,0,0,0,0,0,0Z"/>
  <path class="cls-1" d="M155.4,68.3h0l-57.1,95c-5.9,9.6-2.8,22.2,6.8,28,0,0,.1,0,.2.1h0l57.1-95c5.9-9.7,2.8-22.3-6.9-28.1,0,0,0,0,0,0Z"/>
  <circle class="cls-1" cx="73.1" cy="104.4" r="30.9"/>
</svg>