<?xml version="1.0" encoding="UTF-8"?>
<svg id="Capa_1" data-name="Capa 1" xmlns="http://www.w3.org/2000/svg" viewBox="0 0 457.38 60.5">
  <defs>
    <style>
      .cls-1 {
        fill: #03023b;
      }
    </style>
  </defs>
  <path class="cls-1" d="M45.88,18.09l-17.42,41.15h-10.95L0,18.09h11.03l5.64,13.52,6.3,17.26,6.22-17.09,5.64-13.69h11.03Z"/>
  <path class="cls-1" d="M59.4,42.23c.66,5.06,5.06,8.71,12.2,8.71,3.73,0,8.63-1.41,10.95-3.82l6.47,6.39c-4.31,4.48-11.37,6.64-17.59,6.64-14.1,0-22.48-8.71-22.48-21.82s8.46-21.4,21.74-21.4,22.23,8.46,20.66,25.3h-31.94ZM81.64,33.85c-.66-5.31-4.81-7.96-10.62-7.96-5.47,0-9.96,2.65-11.45,7.96h22.07Z"/>
  <path class="cls-1" d="M108.52,18.17l.75,4.73c3.15-5.06,7.38-5.81,11.53-5.81s8.3,1.66,10.54,3.9l-4.56,8.79c-2.07-1.74-3.98-2.65-7.3-2.65-5.31,0-10.2,2.82-10.2,10.37v21.57h-10.12V18.17h9.38Z"/>
  <path class="cls-1" d="M146.18,6.64c0,7.88-11.95,7.88-11.95,0s11.95-7.88,11.95,0ZM135.15,18v41.07h10.12V18h-10.12Z"/>
  <path class="cls-1" d="M157.72,59.07v-31.44h-7.63v-8.88h7.63v-2.74c0-10.95,7.38-16.01,15.6-16.01,3.57,0,7.3,1.16,10.62,3.32l-3.73,7.55c-2.16-1.41-4.15-2.16-6.22-2.16-3.48,0-6.14,2.32-6.14,7.3v2.74h12.03v8.88h-12.03v31.44h-10.12Z"/>
  <path class="cls-1" d="M198.04,6.64c0,7.88-11.95,7.88-11.95,0s11.95-7.88,11.95,0ZM187,18v41.07h10.12V18h-10.12Z"/>
  <path class="cls-1" d="M241.34,53.84c-4.73,4.65-9.71,6.47-15.76,6.47-11.86,0-21.74-7.13-21.74-21.65s9.87-21.65,21.74-21.65c5.81,0,10.29,1.66,14.77,6.06l-6.39,6.72c-2.41-2.16-5.39-3.24-8.21-3.24-6.8,0-11.78,4.98-11.78,12.11,0,7.8,5.31,11.95,11.61,11.95,3.24,0,6.47-.91,8.96-3.4l6.8,6.64Z"/>
  <path class="cls-1" d="M278.26,18.17h9.71v40.9h-9.54l-.5-5.97c-2.32,4.81-8.71,7.13-13.27,7.22-12.11.08-21.07-7.38-21.07-21.74s9.38-21.49,21.32-21.4c5.48,0,10.7,2.57,13.03,6.64l.33-5.64ZM253.71,38.58c0,7.8,5.39,12.44,12.11,12.44,15.93,0,15.93-24.81,0-24.81-6.72,0-12.11,4.56-12.11,12.36Z"/>
  <path class="cls-1" d="M323.73,59.07v-21.9c0-5.39-2.82-10.29-8.38-10.29s-8.71,4.89-8.71,10.29v21.9h-10.12V18.09h9.38l.75,4.98c2.16-4.15,6.89-5.64,10.79-5.64,4.89,0,9.79,1.99,12.11,7.63,3.65-5.81,8.38-7.47,13.69-7.47,11.62,0,17.34,7.13,17.34,19.41v22.07h-10.12v-22.07c0-5.39-2.24-9.96-7.71-9.96s-8.88,4.73-8.88,10.12v21.9h-10.12Z"/>
  <path class="cls-1" d="M379.48,42.23c.66,5.06,5.06,8.71,12.2,8.71,3.73,0,8.63-1.41,10.95-3.82l6.47,6.39c-4.31,4.48-11.37,6.64-17.59,6.64-14.1,0-22.48-8.71-22.48-21.82s8.46-21.4,21.74-21.4,22.23,8.46,20.66,25.3h-31.94ZM401.71,33.85c-.66-5.31-4.81-7.96-10.62-7.96-5.47,0-9.96,2.65-11.45,7.96h22.07Z"/>
  <path class="cls-1" d="M444.44,18.17h12.11v.33l-13.44,19.83,14.27,20.49v.25h-12.11l-8.88-13.69-8.88,13.69h-12.11v-.25l14.27-20.49-13.44-19.83v-.33h12.11l8.05,13.85,8.05-13.85Z"/>
</svg>