<?xml version="1.0" encoding="UTF-8"?>
<svg id="Capa_1" xmlns="http://www.w3.org/2000/svg" version="1.1" xmlns:xlink="http://www.w3.org/1999/xlink" viewBox="0 0 723.1 768.3">
  <!-- Generator: Adobe Illustrator 29.1.0, SVG Export Plug-In . SVG Version: 2.1.0 Build 142)  -->
  <defs>
    <style>
      .st0 {
        fill: #fff;
      }

      .st1 {
        fill: #4c16c6;
      }

      .st2 {
        fill: #40596b;
      }

      .st3 {
        isolation: isolate;
      }

      .st4 {
        fill: #e5eef5;
      }

      .st5 {
        fill: #a4bad9;
      }

      .st6 {
        fill: url(#Degradado_sin_nombre);
      }

      .st7 {
        opacity: .5;
      }

      .st8 {
        fill: #e6e6e6;
      }
    </style>
    <linearGradient id="Degradado_sin_nombre" data-name="Degradado sin nombre" x1="565.8" y1="95.1" x2="565.8" y2="-221.7" gradientTransform="translate(-1.1 673.2)" gradientUnits="userSpaceOnUse">
      <stop offset="0" stop-color="gray" stop-opacity=".2"/>
      <stop offset=".5" stop-color="gray" stop-opacity=".1"/>
      <stop offset="1" stop-color="gray" stop-opacity=".1"/>
    </linearGradient>
  </defs>
  <path class="st8" d="M8.6,0C4.9-.1,1.8,2.8,1.7,6.5c0,0,0,0,0,.1L0,710c.2,3.7,3.2,6.6,6.9,6.5l597.1,1.3c3.7.1,6.8-2.8,7-6.5l1.7-703.5c-.1-3.7-3.2-6.7-6.9-6.6L8.6,0Z"/>
  <path class="st0" d="M30.8,21.1c-3.7-.1-6.8,2.8-6.9,6.5,0,0,0,0,0,.1l-1.6,661.4c.1,3.7,3.2,6.7,6.9,6.6l552.8,1.2c3.8.1,6.9-2.8,7-6.6h0s1.5-661.4,1.5-661.4c0-3.7-3.1-6.7-6.8-6.6,0,0,0,0-.1,0L30.8,21.1Z"/>
  <path class="st8" d="M510.2,308.3l-407.3-.9c-5.4.5-10.3-3.4-10.8-8.9-.5-5.4,3.4-10.3,8.9-10.8.7,0,1.3,0,2,0l407.3.9c5.6-.1,10.2,4.3,10.3,9.9,0,0,0,0,0,0-.1,5.5-4.7,9.9-10.2,9.8,0,0,0,0-.1,0Z"/>
  <path class="st8" d="M516.5,124.5l-177.8-.6c-2.5,0-4.5-4.4-4.5-9.9s2-9.9,4.6-9.8l177.8.6c2.5,0,4.5,4.4,4.5,9.9s-2.1,9.8-4.6,9.8Z"/>
  <path class="st8" d="M516.3,181.1l-177.8-.6c-2.5,0-4.5-4.4-4.5-9.9s2-9.9,4.7-9.8l177.8.6c2.5,0,4.5,4.4,4.5,9.9s-2,9.8-4.7,9.8Z"/>
  <path class="st8" d="M516.3,244.5l-177.8-.6c-2.5,0-4.5-4.4-4.5-9.9s2-9.9,4.7-9.8l177.8.6c2.5,0,4.5,4.4,4.5,9.9s-2,9.8-4.7,9.8Z"/>
  <path class="st8" d="M510,372l-407.3-.8c-5.4.5-10.3-3.4-10.8-8.9-.5-5.4,3.4-10.3,8.9-10.8.7,0,1.3,0,2,0l407.3.9c5.8,0,10.5,4.4,10.5,9.9s-4.7,9.8-10.5,9.7h0Z"/>
  <path class="st8" d="M509.8,435.8l-407.3-.9c-5.6.1-10.2-4.3-10.4-9.9,0-5.4,4.7-9.9,10.4-9.9h0l407.3.9c5.7,0,10.5,4.4,10.5,9.9s-4.7,9.9-10.5,9.9h0Z"/>
  <path class="st8" d="M509.8,499.6l-407.3-.9c-5.6.1-10.2-4.3-10.4-9.9,0-5.4,4.7-9.9,10.4-9.9h0l407.3.9c5.7,0,10.4,4.5,10.2,9.9,0,5.5-4.6,10-10.1,9.9,0,0,0,0-.1,0Z"/>
  <path class="st8" d="M509.5,563.4l-407.2-.9c-5.6.1-10.2-4.3-10.3-9.9,0,0,0,0,0-.1,0-5.4,4.7-9.7,10.4-9.7l407.3.9c5.6,0,10.1,4.3,10.3,9.9,0,5.4-4.7,9.8-10.5,9.8h0Z"/>
  <path class="st8" d="M509.4,627.1l-407.4-.8c-5.6.1-10.3-4.4-10.4-10,0,0,0,0,0,0,0-5.4,4.7-9.9,10.4-9.9h0l407.3.9c5.7,0,10.5,4.5,10.5,10-.2,5.6-4.8,10-10.4,9.8,0,0,0,0,0,0h0Z"/>
  <ellipse class="st8" cx="35.3" cy="33.5" rx="35.3" ry="33.5"/>
  <ellipse class="st8" cx="577.4" cy="33.5" rx="35.3" ry="33.5"/>
  <ellipse class="st8" cx="569.6" cy="682.7" rx="35.3" ry="33.5"/>
  <ellipse class="st8" cx="35.3" cy="682.7" rx="35.3" ry="33.5"/>
  <path class="st8" d="M231.5,307.7"/>
  <g class="st7">
    <circle class="st6" cx="564.7" cy="609.9" r="158.4"/>
  </g>
  <circle class="st1" cx="564.7" cy="609.9" r="148.3"/>
  <g class="st3">
    <path class="st0" d="M487.4,640.8c-3.5,3.2-7.6,5.7-12,7.5-4,1.4-8.2,2.1-12.4,2.1-7.2,0-12.8-1.7-16.7-5.3-3.9-3.4-6-8.4-5.9-13.6,0-3.1.8-6.2,2.2-8.9,1.4-2.6,3.4-4.8,5.8-6.4,2.5-1.7,5.2-2.9,8.1-3.7,3.3-.8,6.6-1.3,10-1.7,9-1.1,15.7-2.4,20-3.9v-2.9c0-4.6-1-7.8-3.1-9.6s-7.2-3.8-12.8-3.8-9.2.9-11.7,2.7-4.4,5.2-5.6,9.8l-10.9-1.5c.8-4.1,2.4-8,4.9-11.3,2.6-3.1,6-5.4,9.9-6.7,4.8-1.6,9.9-2.4,15-2.3,5.7,0,10.2.6,13.8,2,5.9,1.6,10.3,6.6,11.3,12.6.4,3.5.6,6.9.5,10.4v14.9c0,10.4.3,17,.7,19.8.5,2.8,1.5,5.5,2.9,8h-11.7c-1.3-2.6-2-5.3-2.3-8.2ZM486.5,615.7c-4.1,1.7-10.2,3.1-18.3,4.3-3.3.3-6.6,1.1-9.8,2.2-1.8.8-3.4,2.1-4.5,3.7-1,1.6-1.5,3.4-1.5,5.3,0,2.9,1.2,5.6,3.4,7.5,2.2,2,5.6,3,9.9,3,4.1,0,8-.9,11.6-2.9,3.2-1.8,5.8-4.5,7.4-7.7,1.2-2.6,1.8-6.3,1.8-11.3v-4.1Z"/>
    <path class="st0" d="M510.7,629.2l11.1-1.7c.4,3.9,2.2,7.6,5.2,10.2,2.9,2.3,6.8,3.5,12,3.5s8.9-1,11.4-3.1c2.3-1.8,3.7-4.5,3.8-7.4,0-2.4-1.2-4.7-3.3-6-1.6-1-5.4-2.3-11.5-3.8-8.2-2.1-13.9-3.9-17.1-5.4-3-1.3-5.5-3.5-7.2-6.3-1.7-2.7-2.5-5.8-2.5-8.9,0-2.9.7-5.7,2-8.2,1.3-2.5,3.2-4.6,5.5-6.2,2.2-1.5,4.6-2.6,7.2-3.3,3.2-.9,6.4-1.3,9.7-1.3,4.6-.1,9.2.6,13.6,2.2,4,1.5,6.9,3.5,8.7,6.1,2.1,3,3.4,6.5,3.9,10.2l-11,1.5c-.3-3.1-1.9-5.9-4.3-7.9-2.4-2-5.8-2.9-10.1-2.9s-8.9.8-11.1,2.5-3.3,3.7-3.3,6c0,1.5.5,2.9,1.4,4,1.1,1.4,2.6,2.4,4.3,2.9,1.1.5,4.4,1.4,9.9,2.9,5.6,1.4,11.2,3.1,16.6,5.2,3,1.2,5.5,3.3,7.4,5.9,1.9,2.8,2.8,6.2,2.7,9.6,0,3.8-1.2,7.5-3.3,10.6-2.3,3.4-5.6,6-9.4,7.6-4.4,1.9-9.2,2.8-14,2.7-8.6,0-15.1-1.7-19.6-5.3s-7.4-8.9-8.7-15.9Z"/>
    <path class="st0" d="M579,649v-66.2h10.1v9.4c4.9-7.3,11.9-10.9,21.1-10.9,3.8,0,7.5.7,11,2.1,3,1.2,5.6,3.2,7.5,5.7,1.7,2.5,2.9,5.2,3.5,8.2.5,3.6.7,7.3.6,11v40.7h-11.2v-40.3c0-4.6-.4-8-1.3-10.3-.9-2.3-2.6-4.2-4.7-5.4-2.4-1.4-5.1-2.1-7.8-2-4.5-.1-8.9,1.5-12.3,4.5-3.5,3.1-5.3,8.8-5.3,17.3v36.2h-11.2Z"/>
    <path class="st0" d="M689.2,649h-11.3v-71.5c-3.3,2.9-6.8,5.5-10.6,7.7-3.8,2.3-7.7,4.2-11.8,5.8v-10.9c6-2.7,11.6-6.3,16.5-10.7,4.6-4.2,8-8.2,9.9-12.2h7.3v91.8Z"/>
  </g>
  <circle class="st4" cx="198.9" cy="136.7" r="92.9"/>
  <path class="st2" d="M123.6,191l-32,55.4,37.3-2,16.9,33.3,29.6-51.3c-20.8-5.4-39.2-18-51.8-35.4Z"/>
  <path class="st2" d="M274.3,190.7c-12.6,17.5-30.8,30.1-51.7,35.6l29.7,51.4,16.9-33.3,37.3,2-32.2-55.7Z"/>
  <circle class="st5" cx="198.9" cy="136.7" r="67.3"/>
  <path class="st0" d="M245,129.4c1.4-1.3,1.5-3.5.2-4.9-.5-.6-1.2-.9-2-1.1l-26.7-3.9c-1.1-.2-2.1-.9-2.6-1.9l-11.9-24.1c-.8-1.7-2.9-2.5-4.7-1.6-.7.3-1.3.9-1.6,1.6l-11.8,24.1c-.5,1-1.5,1.7-2.6,1.9l-26.6,3.9c-1.9.3-3.2,2.1-3,4,.1.8.5,1.5,1.1,2l19.2,18.7c.8.8,1.2,2,1,3.1l-4.5,26.4c-.3,1.9.9,3.7,2.8,4.1.8.1,1.6,0,2.3-.4l23.8-12.5c1-.6,2.3-.6,3.3,0l23.8,12.5c1.8.9,3.9.2,4.8-1.6.3-.7.5-1.4.4-2.1l-4.7-26.4c-.2-1.1.2-2.3,1-3.1l19-18.7Z"/>
</svg>